<svg width="13" height="18" viewBox="0 0 13 18" fill="none" xmlns="http://www.w3.org/2000/svg">
<path fill-rule="evenodd" clip-rule="evenodd" d="M12.2129 7.92926C12.5814 7.92926 12.8801 8.18184 12.8801 8.49342L12.8777 8.52374V9.9264H12.8695C12.8715 12.5181 10.5805 14.7014 7.53684 15.0084V16.7234H10.051L10.0503 16.7307C10.0594 16.7303 10.0685 16.7302 10.0777 16.7302C10.4462 16.7302 10.745 16.9828 10.745 17.2943C10.745 17.6059 10.4462 17.8585 10.0777 17.8585L10.0505 17.8565L10.051 17.8585H3.6962C3.6885 17.8584 3.68035 17.8585 3.67218 17.8585C3.30367 17.8585 3.00493 17.6059 3.00493 17.2943C3.00493 16.9828 3.30367 16.7302 3.67218 16.7302L3.6962 16.7314V16.7234H6.21571V15.0084C3.16555 14.7087 0.866047 12.5227 0.869755 9.9264C0.869755 9.90158 0.874304 9.87901 0.874838 9.85644L0.87496 8.5642C0.871529 8.54102 0.869755 8.51739 0.869755 8.49342C0.869755 8.18184 1.1685 7.92926 1.53701 7.92926C1.90551 7.92926 2.20426 8.18184 2.20426 8.49342L2.20049 8.53998L2.20103 10.1024H2.19756V10.1069L2.20103 10.1679V10.38H2.21359C2.41192 12.3864 4.3539 13.9502 6.73376 14.0199H7.00333C9.38394 13.9514 11.327 12.387 11.5246 10.38H11.5406V8.5002C11.5457 8.49803 11.5457 8.49573 11.5457 8.49342C11.5457 8.18184 11.8444 7.92926 12.2129 7.92926ZM10.4727 8.97635C10.4727 9.3171 10.4727 9.67591 10.4514 10.0167C10.435 10.324 10.3795 10.6288 10.2859 10.9261C10.077 11.55 9.63161 12.0986 9.01813 12.4877C7.75981 13.3271 5.98475 13.3271 4.72643 12.4877C4.11135 12.0998 3.66539 11.5507 3.45812 10.9261C3.36409 10.6289 3.30869 10.324 3.29292 10.0167C3.2697 9.67591 3.27178 9.3171 3.27178 8.97635V6.12394C3.27178 5.78545 3.27397 4.28929 3.27178 4.03655C3.28238 3.72742 3.3453 3.42115 3.45866 3.12712C3.88594 1.83156 5.28181 0.935425 6.87255 0.935425C8.46329 0.935425 9.85915 1.83156 10.2864 3.12712C10.3868 3.42378 10.4494 3.72865 10.4732 4.03655C10.4973 4.3773 10.4732 5.78545 10.4732 6.12394V8.97635H10.4727ZM9.13823 9.50891C9.13823 9.72555 9.13288 9.79776 9.11687 10.0144C9.10766 10.2111 9.07277 10.4064 9.0128 10.5966C8.88498 10.996 8.60669 11.3494 8.2201 11.6031C7.42799 12.1236 6.31923 12.1236 5.52712 11.6031C5.13904 11.3501 4.85966 10.9966 4.73176 10.5966C4.67308 10.4062 4.63819 10.211 4.62767 10.0144C4.61432 9.79776 4.61166 9.72555 4.61166 9.50891C4.61166 6.50757 4.59563 4.28252 4.61699 4.04332C4.63243 3.84652 4.67088 3.65149 4.73176 3.4611C4.85966 3.06113 5.13904 2.70762 5.52712 2.45464C6.31923 1.9341 7.42799 1.9341 8.2201 2.45464C8.60669 2.70836 8.88498 3.06168 9.0128 3.4611C9.0806 3.65062 9.12357 3.84586 9.14091 4.04332C9.1596 4.30057 9.13823 6.49854 9.13823 9.50891Z" fill="#A7A7A7"/>
</svg>
