<svg width="45" height="44" viewBox="0 0 45 44" fill="none" xmlns="http://www.w3.org/2000/svg">
<rect width="31.9459" height="31.9459" transform="translate(28.1452) rotate(58.8185)" fill="white"/>
<path d="M28.4884 13.4216C33.3706 13.2364 35.383 16.5616 32.9542 20.8009L28.9562 27.7946L24.7064 35.2207C22.4137 39.2221 18.5834 39.2686 16.1988 35.3284L12.0225 28.4274L7.84614 21.5263C5.45472 17.5748 7.27961 14.2144 11.8879 14.0394L20.4381 13.7193L22.0404 13.6675" fill="#0560FA"/>
<path d="M20.1453 38.1989L21.1669 22.8934L7.13381 16.6986" fill="#0560FA"/>
<path d="M20.1453 38.1989L21.1669 22.8934L7.13381 16.6986" stroke="white" stroke-width="1.5" stroke-linecap="round" stroke-linejoin="round"/>
<path d="M32.9989 15.7329L21.1669 22.8934" stroke="white" stroke-width="1.5" stroke-linecap="round" stroke-linejoin="round"/>
</svg>
